07 - Trees and Forests
…
For what will follow, it would be useful to remove `NA`s and define `survived` as a factor:

```r
titanic <-titanic_raw %>% 
  select(survived, age, pclass) %>% 
  drop_na() %>% 
  mutate(
    survived = as_factor(survived),
  ) 

titanic
```

```
## # A tibble: 1,046 x 3
##    survived   age pclass
##    <fct>    <dbl>  <dbl>
##  1 1        29         1
##  2 1         0.92      1
##  3 0         2         1
##  4 0        30         1
##  5 0        25         1
##  6 1        48         1
##  7 1        63         1
##  8 0        39         1
##  9 1        53         1
## 10 0        71         1
## # ... with 1,036 more rows
```
…
