05 - Regression and Regularization
…
---

# Which features were selected?

.pull-left[
Using `s = lambda.min`:

```r
coef(cv_lasso, s = "lambda.min") %>%
  tidy() %>%
  as_tibble()
```

```
## # A tibble: 72 x 3
##    row             column    value
##    <chr>           <chr>     <dbl>
##  1 (Intercept)     1       6.02   
##  2 65.115.67.11    1       0.00247
##  3 about.com       1      -0.0683 
##  4 active.com      1       0.0581 
##  5 adoutput.com    1      -0.0305 
##  6 adrevolver.com  1      -0.0352 
##  7 adserver.com    1       0.0156 
##  8 adsonar.com     1       0.0249 
##  9 advertising.com 1      -0.0104 
## 10 ajc.com         1      -0.0664 
## # ... with 62 more rows
```
]
.pull-right[
Using `s = lamda.1se`:

```r
coef(cv_lasso, s = "lambda.1se") %>%
  tidy() %>%
  as_tibble()
```

```
## # A tibble: 26 x 3
##    row              column    value
##    <chr>            <chr>     <dbl>
##  1 (Intercept)      1       6.04   
##  2 adrevolver.com   1      -0.00384
##  3 amazon.com       1       0.0749 
##  4 atomz.com        1       0.165  
##  5 azjmp.com        1      -0.168  
##  6 bestbuy.com      1       0.0906 
##  7 cheaptickets.com 1       0.306  
##  8 checkm8.com      1      -0.0912 
##  9 circuitcity.com  1       0.146  
## 10 citysearch.com   1       0.615  
## # ... with 16 more rows
```
…
