08 - Causal Inference
…
---
# The final dataset

```r
ohie
```

```
## # A tibble: 23,492 x 3
##    numhh_list        treatment doc_any_12m
##    <fct>             <dbl+lbl>   <dbl+lbl>
##  1 1          1 [Selected]         0 [No] 
##  2 1          1 [Selected]         0 [No] 
##  3 1          1 [Selected]         0 [No] 
##  4 1          1 [Selected]         1 [Yes]
##  5 2          0 [Not selected]     0 [No] 
##  6 1          0 [Not selected]     1 [Yes]
##  7 2          0 [Not selected]     1 [Yes]
##  8 1          1 [Selected]         1 [Yes]
##  9 1          1 [Selected]         0 [No] 
## 10 2          1 [Selected]         1 [Yes]
## # ... with 23,482 more rows
```
…
