06 - Classification
…
---
# Generate predictions

The `augment()` function (also from `{broom}`) augments the original dataframe with the fitted values (and standard errors)

```r
covid_pred <- 
  logit_model %>% 
  augment(type.predict = "response")

covid_pred
```

```
## # A tibble: 107,542 x 15
##    corona_result cough fever sore_throat shortness_of_br~ head_ache age_60_and_above
##    <fct>         <fct> <fct> <fct>       <fct>            <fct>     <fct>           
##  1 negative      1     0     0           0                0         No              
##  2 negative      1     1     0           0                0         No              
##  3 negative      0     1     0           0                0         Yes             
##  4 positive      1     1     0           0                0         Yes             
##  5 negative      1     0     0           0                0         Yes             
##  6 positive      1     1     0           0                0         Yes             
##  7 negative      0     0     0           0                0         No              
##  8 negative      1     1     1           0                1         No              
##  9 negative      1     0     1           0                0         No              
## 10 negative      1     1     1           1                0         No              
## # ... with 107,532 more rows, and 8 more variables: gender <fct>, .fitted <dbl>,
## #   .se.fit <dbl>, .resid <dbl>, .hat <dbl>, .sigma <dbl>, .cooksd <dbl>,
## #   .std.resid <dbl>
```
…
```r
covid_pred <- logit_model %>% 
  augment(type.predict = "response") %>% 
  mutate(                                                                 
*   .fitted_class = if_else(.fitted < class_rule, "negative", "positive"),
    .fitted_class = as_factor(.fitted_class)                              
  ) %>%                                                                    
  select(corona_result, .fitted, .fitted_class)

covid_pred
```

```
## # A tibble: 107,542 x 3
##    corona_result .fitted .fitted_class
##    <fct>           <dbl> <fct>        
##  1 negative       0.0709 negative     
##  2 negative       0.342  negative     
##  3 negative       0.287  negative     
##  4 positive       0.437  negative     
##  5 negative       0.0770 negative     
##  6 positive       0.437  negative     
##  7 negative       0.0381 negative     
##  8 negative       1.00   positive     
##  9 negative       0.817  positive     
## 10 negative       1.00   positive     
## # ... with 107,532 more rows
```
…
---
# Tidy the data using `pivot_longer`

The following code chunk transforms the date from wide to long format using the `pivot_longer()` function from the `{tidyr}` package (this will come in handy soon when we plot the data.):

```r
fgl_long <- 
  fgl_wide %>% 
  pivot_longer(-type, names_to = "feature", values_to = "value")

fgl_long
```

```
## # A tibble: 1,926 x 3
##    type  feature value
##    <fct> <chr>   <dbl>
##  1 WinF  RI       3.01
##  2 WinF  Na      13.6 
##  3 WinF  Mg       4.49
##  4 WinF  Al       1.1 
##  5 WinF  Si      71.8 
##  6 WinF  K        0.06
##  7 WinF  Ca       8.75
##  8 WinF  Ba       0   
##  9 WinF  Fe       0   
## 10 WinF  RI      -0.39
## # ... with 1,916 more rows
```
…
